[comment encoding = UTF-8 /]
[module genJava('http://www.example.org/asa')]


[template public genClass(sys : System)]
[comment @main/]
[file (sys.nom.concat('.java'), false, 'UTF-8')]
[comment][/comment]


public class [sys.nom/] {

	[comment]Déclaration des attributs[/comment]
	[for (comp : Composant | sys.composant)]
    private [comp.eClass().instanceClassName/] [comp.nom/];
	[/for]
 	[for (conn : Connecteur | sys.connecteur)]
    private	[conn.eClass().instanceClassName/] [conn.nom/];
	[/for]
	private String nom;
	
	[comment]Déclaration constructeur[/comment]
	public [sys.nom/](){}


	[comment]Déclaration des getter/setter[/comment]
	[for (comp : Composant | sys.composant)]
    public void set[comp.nom.toUpperFirst()/]([comp.eClass().instanceClassName/] [comp.nom/]) {
        this.[comp.nom/] = [comp.nom/];
    }
	[/for]

	[for (con : Connecteur | sys.connecteur)]
    public void set[con.nom.toUpperFirst()/]([con.eClass().instanceClassName/] [con.nom/]) {
        this.[con.nom/] = [con.nom/];
    }
	[/for]

	[for (con : Connecteur | sys.connecteur)]
    public [con.eClass().name/] get[con.nom.toUpperFirst()/]() {
        return this.[con.nom/];
    }
	[/for]

	[for (comp : Composant | sys.composant)]
    public [comp.eClass().name/] get[comp.nom.toUpperFirst()/]() {
        return this.[comp.nom/];
    }
	[/for]

	public String getName(){
		return this.nom;
	}

	public void setNom(String nom){
		this.nom = nom;
	} 

}
[/file]
[/template]

[template public genClassConnecteur(con : Connecteur)]
[comment @main/]
[file (con.nom.concat('.java'), false, 'UTF-8')]
public class [con.nom/] {
	
	[for (inter : Interface | con.interface)]
   	private [inter.eClass().instanceClassName/] [inter.nom/];
	[/for]
	private String nom;

	[comment]Déclaration constructeur[/comment]
	public [con.nom/](){}

	[comment]Déclaration des getter/setter[/comment]
	[for (inter : Interface | con.interface)]
    public void set[inter.nom.toUpperFirst()/]([inter.eClass().instanceClassName/] [inter.nom/]) {
        this.[inter.nom/] = [inter.nom/];
    }
	[/for]
	[for (inter : Interface | con.interface)]
    public [inter.eClass().name/] get[inter.nom.toUpperFirst()/]() {
        return this.[inter.nom/];
    }
	[/for]

    public String getNom () {
        return this.nom;
    }

	    public void setNom () {
        return this.nom;
    }
}	
[/file]
[/template]

[template public genClassRole(role : Role)]
[comment @main/]
[file (role.nom.concat('.java'), false, 'UTF-8')]
public class [role.nom/] {
	
	[for (port : Port | role.port)]
   	private [port.eClass().instanceClassName/] [port.nom/];
	[/for]

	[comment]Déclaration constructeur[/comment]
	public [port.nom/](){}

	[comment]Déclaration des getter/setter[/comment]
	[for (name : String | port.nom)]
    public void set[name.toUpperFirst()/]([name/] [name/]) {
        this.[name/] = [name/];
    }
	[/for]

	[for (name : String | port.nom)]
    public String get[name.toUpperFirst()/]() {
        return this.[name/];
    }
	[/for]
}	
[/file]
[/template]

[template public genClassPort(port : Port)]
[comment @main/]
[file (port.nom.concat('.java'), false, 'UTF-8')]
public class [port.nom/] {
	
	[for (port : Port | role.port)]
   	private [port.eClass().instanceClassName/] [port.nom/];
	[/for]
	private String msg;
	[comment]Déclaration constructeur[/comment]
	public [port.nom/](){}

	[comment]Déclaration des getter/setter[/comment]
	[for (name : String | port.nom)]
    public void set[name.toUpperFirst()/]([name/] [name/]) {
        this.[name/] = [name/];
    }
	[/for]

	[for (name : String | port.nom)]
    public String get[name.toUpperFirst()/]() {
        return this.[name/];
    }
	[/for]
	
	public synchronized void Send(String msg) {
		this.msg = msg;
		notify();
	}
	
	public synchronized String getMsg() {
		while(msg == null)
		{	try {
				wait();
			} catch (InterruptedException e) {
				// TODO Auto-generated catch block
				e.printStackTrace();
			}
		}
		String m = msg;
		msg = null;
		notify();
		return m;
	}


}	
[/file]
[/template]

[template public genClassComposant(comp : Composant)]
[comment @main/]
[file (comp.nom.concat('.java'), false, 'UTF-8')]
public class [comp.nom/] {
	
	[for (inter : Interface | comp.interface)]
   	private [inter.eClass().instanceClassName/] [inter.nom/];
	[/for]
	[for (sys : System | comp.system)]
   	private [sys.eClass().instanceClassName/] [sys.nom/];
	[/for]
	private String nom;

	[comment]Déclaration constructeur[/comment]
	public [comp.nom/](){}

	[comment]Déclaration des getter/setter[/comment]
	[for (inter : Interface | comp.interface)]
    public void set[inter.nom.toUpperFirst()/]([inter.eClass().name/] [inter.nom/]) {
        this.[inter.nom/] = [inter.nom/];
    }
	[/for]

	[for (inter : Interface | comp.interface)]
    public [inter.eClass().name/] get[inter.nom.toUpperFirst()/]() {
        return this.[inter.nom/];
    }
	[/for]

	[for (sys : System | comp.system)]
    public void set[sys.nom.toUpperFirst()/]([sys.eClass().name/] [sys.nom/]) {
        this.[sys.nom/] = [sys.nom/];
    }
	[/for]
	[for (sys : System | comp.system)]
    public [sys.eClass().name/] get[sys.nom.toUpperFirst()/]() {
        return this.[sys.nom/];
    }
	[/for]

	public void setNom(String name){
		this.nom = name;
	}

		public String getNom(){
			retrun nom;
	}

}	
[/file]
[/template]


[template public genClassInterfaceCompo(inter : InterfaceComposant)]
[comment @main/]
[file (inter.nom.concat('.java'), false, 'UTF-8')]
public class [inter.nom/]{
	
	[for (bol : Boolean | inter.requis)]
   	private boolean [bol/];
	[/for]
	[for (name : String | inter.nom)]
   	private String nom;
	[/for]
	[for (port : Port | inter.port)]
   	private [port.eClass().instanceClassName/] [port.nom/];
	[/for]
	[for (ser : Service | inter.service)]
   	private [ser.eClass().instanceClassName/] [ser.nom/];
	[/for]

	[comment]Déclaration constructeur[/comment]
	public [inter.nom/](){}

	[comment]Déclaration des getter/setter[/comment]
	[for (port : Port | inter.port)]
    public void set[port.nom.toUpperFirst()/]([port.eClass().name/] [port.nom/]) {
        this.[port.nom/] = [port.nom/];
    }
	[/for]
	[for (port : Port | inter.port)]
    public [port.eClass().name/] get[port.eClass().name.toUpperFirst()/]() {
        return this.[port.nom/];
    }
	[/for]

	[for (ser : Service | inter.service)]
    public void set[ser.nom.toUpperFirst()/]([ser.eClass().name/] [ser.nom/]) {
        this.[ser.nom/] = [ser.nom/];
    }
	[/for]

	public void setNom(String name){
		this.nom = name;
	}

		public String getNom(){
			retrun nom;
	}

}	
[/file]
[/template]

[template public genClassInterfaceConne(inter : InterfaceConnecteur)]
[comment @main/]
[file (inter.nom.concat('.java'), false, 'UTF-8')]
public class [inter.nom/]{
	
	[for (bol : Boolean | inter.requis)]
   	private boolean [bol/];
	[/for]
	[for (name : String | inter.nom)]
   	private String nom;
	[/for]
	[for (r : Role | inter.role)]
   	private [r.eClass().instanceClassName/] [r.nom/];
	[/for]

	[comment]Déclaration constructeur[/comment]
	public [inter.nom/](){}

	[comment]Déclaration des getter/setter[/comment]
	
    public String getNom() {
        return this.nom;
    }
	
   public void setNom(String name) {
        return this.nom;
    }

	[for (r : Role | inter.role)]
    public [r.eClass().name/] get[r.nom.toUpperFirst()/]() {
        return this.[r.nom/];
    }
	[/for]

	[for (r : Role | inter.role)]
    public void set[r.nom.toUpperFirst()/]([r.nom/] [r.nom/]) {
        this.[r.nom/] = [r.nom/];
    }
	[/for]
}	
[/file]
[/template]

[template public genClassService(ser : Service)]
[comment @main/]
[file (ser.nom.concat('.java'), false, 'UTF-8')]
public class [ser.nom/] {
	
	[for (name : String | ser.nom)]
   	private String [ser.nom/];
	[/for]


	[comment]Déclaration constructeur[/comment]
	public [ser.nom/](){}

	[comment]Déclaration des getter/setter[/comment]
	[for (name : String | ser.nom)]
    public void set[name.toUpperFirst()/]([name/] [name/]) {
        this.[name/] = [name/];
    }
	[/for]

	[for (name : String | ser.nom)]
    public String get[name.toUpperFirst()/]() {
        return this.[name/];
    }
	[/for]
}	
[/file]
[/template]

